<?xml version="1.0" encoding="utf-8"?>
<!-- Generator: Adobe Illustrator 16.0.0, SVG Export Plug-In . SVG Version: 6.00 Build 0)  -->
<!DOCTYPE svg PUBLIC "-//W3C//DTD SVG 1.1//EN" "http://www.w3.org/Graphics/SVG/1.1/DTD/svg11.dtd">
<svg version="1.1" id="Capa_1" xmlns="http://www.w3.org/2000/svg" xmlns:xlink="http://www.w3.org/1999/xlink" x="0px" y="0px"
	 width="1364px" height="984px" viewBox="0 0 1364 984" enable-background="new 0 0 1364 984" xml:space="preserve">
<path fill="#1D1D1B" d="M670.328,290.473v210.378L776.68,607.182l25.785-25.765l-95.674-95.654v-195.29H670.328z M1077.297,291.181
	c-2.503-16.152-14.773-29.587-33.646-36.914l-130.442-50.508c-21.766-8.47-42.785-4.529-55.018,9.731
	c-8.982,10.48-12.488,25.529-9.868,42.43l21.45,138.244c4.098,26.396,21.197,43.454,43.534,43.454
	c11.425,0,23.225-4.609,34.118-13.396l36.501-29.35c6.362,19.107,10.874,38.885,13.454,59.253
	c21.569,170.272-99.398,326.323-269.671,347.913c-82.477,10.479-164.068-11.858-229.782-62.76
	c-65.714-50.94-107.651-124.415-118.111-206.871c-10.439-82.498,11.838-164.128,62.779-229.802
	c50.92-65.714,124.396-107.673,206.871-118.112c42.391-5.396,84.547-2.167,125.281,9.613l10.107-35.063
	c-45.523-13.121-92.623-16.745-139.978-10.757c-92.13,11.702-174.212,58.545-231.121,131.979
	c-56.889,73.396-81.787,164.561-70.106,256.71c11.661,92.148,58.523,174.211,131.939,231.101
	c61.578,47.749,135.644,72.963,212.289,72.963c14.735,0,29.567-0.946,44.421-2.836c190.228-24.111,325.358-198.442,301.247-388.649
	c-3.447-27.263-10.164-53.541-19.68-78.755l42.55-34.234C1072.195,323.881,1079.799,307.333,1077.297,291.181z M1033.547,308.161
	l-108.99,87.657c-5.969,4.807-9.851,5.319-11.249,5.319c-5.377,0-7.289-11.307-7.485-12.568l-21.451-138.242
	c-1.104-7.053,0.059-11.426,1.517-13.12c0.867-1.024,2.481-1.536,4.768-1.536c2.658,0,5.89,0.749,9.375,2.088l130.442,50.547
	c6.954,2.679,10.422,6.185,10.776,8.47S1039.378,303.473,1033.547,308.161z"/>
</svg>
