<svg xmlns="http://www.w3.org/2000/svg" viewBox="0 0 142.377 142.377">
  <defs>
    <style>
      .cls-1 {
        fill: #606060;
      }
    </style>
  </defs>
  <path id="noun_Info_1591448_606060" class="cls-1" d="M82.1,42.549H66.279V26.729H82.1Zm0,55.369V58.369H58.369v15.82h7.91v23.73h-7.91v15.82H90.008V97.918ZM129.557,10.91a7.919,7.919,0,0,1,7.91,7.91V129.557a7.919,7.919,0,0,1-7.91,7.91H18.82a7.919,7.919,0,0,1-7.91-7.91V18.82a7.919,7.919,0,0,1,7.91-7.91H129.557m0-7.91H18.82A15.82,15.82,0,0,0,3,18.82V129.557a15.82,15.82,0,0,0,15.82,15.82H129.557a15.82,15.82,0,0,0,15.82-15.82V18.82A15.82,15.82,0,0,0,129.557,3Z" transform="translate(-3 -3)"/>
</svg>
