{
  "project_info": {
    "project_number": "647754077678",
    "firebase_url": "https://airship-4f7ff.firebaseio.com",
    "project_id": "airship-4f7ff",
    "storage_bucket": "airship-4f7ff.appspot.com"
  },
  "client": [
    {
      "client_info": {
        "mobilesdk_app_id": "1:647754077678:android:5cbe2d3ee02d80b4",
        "android_client_info": {
          "package_name": "io.ionic.airship"
        }
      },
      "oauth_client": [
        {
          "client_id": "647754077678-9k7qe4o2tfkd9teqfl5ckk5n9vq39cej.apps.googleusercontent.com",
          "client_type": 3
        }
      ],
      "api_key": [
        {
          "current_key": "AIzaSyA5ymGe66sl51vVTvuqnGkIyso4n5XbW3M"
        }
      ],
      "services": {
        "analytics_service": {
          "status": 1
        },
        "appinvite_service": {
          "status": 1,
          "other_platform_oauth_client": []
        },
        "ads_service": {
          "status": 2
        }
      }
    },
    {
      "client_info": {
        "mobilesdk_app_id": "1:647754077678:android:ab86d2c431dfd241",
        "android_client_info": {
          "package_name": "io.ionic.airshipArgentina"
        }
      },
      "oauth_client": [
        {
          "client_id": "647754077678-9k7qe4o2tfkd9teqfl5ckk5n9vq39cej.apps.googleusercontent.com",
          "client_type": 3
        }
      ],
      "api_key": [
        {
          "current_key": "AIzaSyA5ymGe66sl51vVTvuqnGkIyso4n5XbW3M"
        }
      ],
      "services": {
        "analytics_service": {
          "status": 1
        },
        "appinvite_service": {
          "status": 1,
          "other_platform_oauth_client": []
        },
        "ads_service": {
          "status": 2
        }
      }
    }
  ],
  "configuration_version": "1"
}